[{
	"id":1,
	"name":"DCU",
	"children":[{
		"id":3,
		"name":"T0",
		"children":[{
            "id":5,
			"name":"AA"
			}]
    }]
}, {
	"id":2,
	"name":"MEU",
	"children":[{
		"id":4,
		"name":"T0",
		"children":[{
            "id":6,
			"name":"AA"
          }]
    }]
}

]