[{
	"id":1,
	"name":"DCU",
	"children":[
		{
			"id":3,
			"name":"T1",
			"children":[
				{
					"id":6,
					"name":"AA",
					"state":"",
					"user":"",
					"eng":""
				},
				{
					"id":7,
					"name":"BD",
					"user":"",
					"eng":""
				},
				{
					"id":8,
					"name":"CZ",
					"user":"",
					"eng":""
				},
				{
					"id":9,
					"name":"CZ_480B",
					"user":"",
					"eng":""
				}]


		},

		{

			"id":4,
			"name":"T2",
			"children":[
				{
					"id":10,
					"name":"BF",
					"state":"",
					"user":"",
					"eng":""
				},
				{
					"id":11,
					"name":"BC",
					"user":"",
					"eng":""
				},
				{
					"id":12,
					"name":"BD",
					"user":"",
					"eng":""
				},
				{
					"id":13,
					"name":"BE",
					"user":"",
					"eng":""
				},
				{
					"id":14,
					"name":"CZ",
					"user":"",
					"eng":""
				},
				{
					"id":15,
					"name":"CZ_480B",
					"user":"",
					"eng":""
				}]
		}]
}, {
	"id":2,
	"name":"MEU",
	"children":[
		{
			"id":5,
			"name":"T2",
			"children":[
				{
					"id":16,
					"name":"AB",
					"state":"",
					"user":"",
					"eng":""
				},
				{
					"id":17,
					"name":"BC",
					"user":"",
					"eng":""
				},
				{
					"id":18,
					"name":"BE",
					"user":"",
					"eng":""
				},
				{
					"id":19,
					"name":"CZ",
					"user":"",
					"eng":""
				},
				{
					"id":20,
					"name":"CZ_480B",
					"user":"",
					"eng":""
				}]
		}]
}]