[{
	"id":1,
	"name":"DCU",
	"children":[{
		"id":3,
		"name":"TEMV",
		"children":[{
            "id":5,
			"name":"BD",
			"state":""},
			{"id":6,
			"name":"BE"
		},{"id":7,
			"name":"CZ"

		}]
    }]
}, {
	"id":2,
	"name":"MEU",
	"children":[
		{
		"id":4,
		"name":"TEMV",
		"children":[{
            "id":8,
			"name":"AB",
			"state":""},
			{"id":9,
              "name":"BC"},
            {"id":10,
              "name":"BE"},
            {"id":11,
              "name":"CZ"}]
    }]
}

]